…
``` r
full_df_no_invalid
```

    ## # A tibble: 868 × 52
    ##     M2ID M2FAMNUM B3TCOMPZ3 B3TEMZ3 B3TEFZ3 B1PAGE_M2[,1] B1PRSEX B1PF7A B1PB1
    ##    <dbl>    <dbl>     <dbl>   <dbl>   <dbl>         <dbl> <fct>   <fct>  <dbl>
    ##  1 10002   100001    -0.258  -1.24    0.221         1.45  1       1         12
    ##  2 10019   100009     1.56    0.839   1.54         -0.246 1       1          9
    ##  3 10040   100018     0.006   0.013  -0.25         -0.434 1       1          7
    ##  4 10047   100022     0.577   0.411   0.596        -0.810 2       1          5
    ##  5 10060   100028    -1.08   -1.07   -0.554         0.412 1       1         10
    ##  6 10061   100029     0.694  -0.872   0.569         2.57  1       1         11
    ##  7 10063   120288    -0.339  -0.415  -0.112        -0.528 2       1         11
    ##  8 10079    10079    -0.418   1.50   -1.08         -0.434 2       2          9
    ##  9 10080    10080    -1.09    1.52   -1.53         -1.28  2       2          6
    ## 10 10087   120731     1.60    2.58    1.10         -0.904 2       1          9
    ## # … with 858 more rows, and 43 more variables: B1PTSEI <dbl[,1]>, B1PB19 <dbl>,
    ## #   B1PA6A <dbl>, B1PA39 <fct>, B1SA11W <dbl[,1]>, B1SA62A <dbl[,1]>,
    ## #   B1SA62B <dbl[,1]>, B1SA62C <dbl[,1]>, B1SA62D <dbl[,1]>, B1SA62E <dbl[,1]>,
    ## #   B1SA62F <dbl[,1]>, B1SA62G <dbl[,1]>, B1SA62H <dbl[,1]>, B1SA62I <dbl[,1]>,
    ## #   B1SA62J <dbl[,1]>, B1SPWBA2 <dbl[,1]>, B1SPWBE2 <dbl[,1]>,
    ## #   B1SPWBG2 <dbl[,1]>, B1SPWBR2 <dbl[,1]>, B1SPWBU2 <dbl[,1]>,
    ## #   B1SPWBS2 <dbl[,1]>, B4QCT_EA <dbl>, B4QCT_EN <dbl>, B4QCT_MD <dbl>, …
…
