…
``` r
# Most of the NA's are from M2P4. Only 1152 observations left
m2p3_selected %>% 
  filter(M2ID %in% m2p4_selected$M2ID)
```

    ## # A tibble: 1,152 × 7
    ##     M2ID M2FAMNUM B3TCOMPZ3 B3TEMZ3 B3TEFZ3 B3PIDATE_MO B3PIDATE_YR
    ##    <dbl>    <dbl>     <dbl>   <dbl>   <dbl>       <dbl>       <dbl>
    ##  1 10002   100001    -0.258  -1.24    0.221           9        2004
    ##  2 10005   120803    -1.72   -0.415  -1.45            1        2005
    ##  3 10019   100009     1.56    0.839   1.54            3        2004
    ##  4 10040   100018     0.006   0.013  -0.25            2        2005
    ##  5 10047   100022     0.577   0.411   0.596           7        2004
    ##  6 10060   100028    -1.08   -1.07   -0.554           7        2004
    ##  7 10061   100029     0.694  -0.872   0.569           7        2004
    ##  8 10063   120288    -0.339  -0.415  -0.112           6        2004
    ##  9 10079       NA    -0.418   1.50   -1.08            9        2005
    ## 10 10080       NA    -1.09    1.52   -1.53            7        2005
    ## # … with 1,142 more rows
…
``` r
# combine data, right now just focus on the non-missing subjects
mar_df = merge(x = m2p1_selected[, c("M2ID", "B1PB19")], 
               y = m3p1_selected[,c("M2ID", "C1PB19")], by = "M2ID", all.x=TRUE) %>% 
  drop_na()

# the results are quite spreaded-out, how to code for them?
mar_df %>% 
  mutate(D1PB19 = C1PB19 - B1PB19) %>% 
  filter(D1PB19 != 0) %>% 
  group_by(B1PB19, C1PB19, D1PB19) %>% 
  summarize(n = n())
```

    ## # A tibble: 23 × 4
    ## # Groups:   B1PB19, C1PB19 [23]
    ##    B1PB19 C1PB19 D1PB19     n
    ##     <dbl>  <dbl>  <dbl> <int>
    ##  1      1      2      1    27
    ##  2      1      3      2    96
    ##  3      1      4      3   184
    ##  4      1      5      4     1
    ##  5      2      1     -1    14
    ##  6      2      3      1    24
    ##  7      2      4      2     2
    ##  8      2      5      3     2
    ##  9      2      7      5     1
    ## 10      3      1     -2    61
    ## # … with 13 more rows
…
